Analysis & Synthesis report for tp1
Wed Oct 31 12:42:59 2018
Quartus Prime Version 18.0.0 Build 614 04/24/2018 SJ Lite Edition


---------------------
; Table of Contents ;
---------------------
  1. Legal Notice
  2. Analysis & Synthesis Summary
  3. Analysis & Synthesis Settings
  4. Parallel Compilation
  5. Analysis & Synthesis Messages
  6. Analysis & Synthesis Suppressed Messages



----------------
; Legal Notice ;
----------------
Copyright (C) 2018  Intel Corporation. All rights reserved.
Your use of Intel Corporation's design tools, logic functions 
and other software and tools, and its AMPP partner logic 
functions, and any output files from any of the foregoing 
(including device programming or simulation files), and any 
associated documentation or information are expressly subject 
to the terms and conditions of the Intel Program License 
Subscription Agreement, the Intel Quartus Prime License Agreement,
the Intel FPGA IP License Agreement, or other applicable license
agreement, including, without limitation, that your use is for
the sole purpose of programming logic devices manufactured by
Intel and sold by Intel or its authorized distributors.  Please
refer to the applicable agreement for further details.



+----------------------------------------------------------------------------------+
; Analysis & Synthesis Summary                                                     ;
+------------------------------------+---------------------------------------------+
; Analysis & Synthesis Status        ; Failed - Wed Oct 31 12:42:59 2018           ;
; Quartus Prime Version              ; 18.0.0 Build 614 04/24/2018 SJ Lite Edition ;
; Revision Name                      ; tp1                                         ;
; Top-level Entity Name              ; tp1                                         ;
; Family                             ; Cyclone IV E                                ;
; Total logic elements               ; N/A until Partition Merge                   ;
;     Total combinational functions  ; N/A until Partition Merge                   ;
;     Dedicated logic registers      ; N/A until Partition Merge                   ;
; Total registers                    ; N/A until Partition Merge                   ;
; Total pins                         ; N/A until Partition Merge                   ;
; Total virtual pins                 ; N/A until Partition Merge                   ;
; Total memory bits                  ; N/A until Partition Merge                   ;
; Embedded Multiplier 9-bit elements ; N/A until Partition Merge                   ;
; Total PLLs                         ; N/A until Partition Merge                   ;
+------------------------------------+---------------------------------------------+


+------------------------------------------------------------------------------------------------------------+
; Analysis & Synthesis Settings                                                                              ;
+------------------------------------------------------------------+--------------------+--------------------+
; Option                                                           ; Setting            ; Default Value      ;
+------------------------------------------------------------------+--------------------+--------------------+
; Device                                                           ; EP4CE30F23C7       ;                    ;
; Top-level entity name                                            ; tp1                ; tp1                ;
; Family name                                                      ; Cyclone IV E       ; Cyclone V          ;
; Use smart compilation                                            ; Off                ; Off                ;
; Enable parallel Assembler and Timing Analyzer during compilation ; On                 ; On                 ;
; Enable compact report table                                      ; Off                ; Off                ;
; Restructure Multiplexers                                         ; Auto               ; Auto               ;
; Create Debugging Nodes for IP Cores                              ; Off                ; Off                ;
; Preserve fewer node names                                        ; On                 ; On                 ;
; Intel FPGA IP Evaluation Mode                                    ; Enable             ; Enable             ;
; Verilog Version                                                  ; Verilog_2001       ; Verilog_2001       ;
; VHDL Version                                                     ; VHDL_1993          ; VHDL_1993          ;
; State Machine Processing                                         ; Auto               ; Auto               ;
; Safe State Machine                                               ; Off                ; Off                ;
; Extract Verilog State Machines                                   ; On                 ; On                 ;
; Extract VHDL State Machines                                      ; On                 ; On                 ;
; Ignore Verilog initial constructs                                ; Off                ; Off                ;
; Iteration limit for constant Verilog loops                       ; 5000               ; 5000               ;
; Iteration limit for non-constant Verilog loops                   ; 250                ; 250                ;
; Add Pass-Through Logic to Inferred RAMs                          ; On                 ; On                 ;
; Infer RAMs from Raw Logic                                        ; On                 ; On                 ;
; Parallel Synthesis                                               ; On                 ; On                 ;
; DSP Block Balancing                                              ; Auto               ; Auto               ;
; NOT Gate Push-Back                                               ; On                 ; On                 ;
; Power-Up Don't Care                                              ; On                 ; On                 ;
; Remove Redundant Logic Cells                                     ; Off                ; Off                ;
; Remove Duplicate Registers                                       ; On                 ; On                 ;
; Ignore CARRY Buffers                                             ; Off                ; Off                ;
; Ignore CASCADE Buffers                                           ; Off                ; Off                ;
; Ignore GLOBAL Buffers                                            ; Off                ; Off                ;
; Ignore ROW GLOBAL Buffers                                        ; Off                ; Off                ;
; Ignore LCELL Buffers                                             ; Off                ; Off                ;
; Ignore SOFT Buffers                                              ; On                 ; On                 ;
; Limit AHDL Integers to 32 Bits                                   ; Off                ; Off                ;
; Optimization Technique                                           ; Balanced           ; Balanced           ;
; Carry Chain Length                                               ; 70                 ; 70                 ;
; Auto Carry Chains                                                ; On                 ; On                 ;
; Auto Open-Drain Pins                                             ; On                 ; On                 ;
; Perform WYSIWYG Primitive Resynthesis                            ; Off                ; Off                ;
; Auto ROM Replacement                                             ; On                 ; On                 ;
; Auto RAM Replacement                                             ; On                 ; On                 ;
; Auto DSP Block Replacement                                       ; On                 ; On                 ;
; Auto Shift Register Replacement                                  ; Auto               ; Auto               ;
; Allow Shift Register Merging across Hierarchies                  ; Auto               ; Auto               ;
; Auto Clock Enable Replacement                                    ; On                 ; On                 ;
; Strict RAM Replacement                                           ; Off                ; Off                ;
; Allow Synchronous Control Signals                                ; On                 ; On                 ;
; Force Use of Synchronous Clear Signals                           ; Off                ; Off                ;
; Auto RAM Block Balancing                                         ; On                 ; On                 ;
; Auto RAM to Logic Cell Conversion                                ; Off                ; Off                ;
; Auto Resource Sharing                                            ; Off                ; Off                ;
; Allow Any RAM Size For Recognition                               ; Off                ; Off                ;
; Allow Any ROM Size For Recognition                               ; Off                ; Off                ;
; Allow Any Shift Register Size For Recognition                    ; Off                ; Off                ;
; Use LogicLock Constraints during Resource Balancing              ; On                 ; On                 ;
; Ignore translate_off and synthesis_off directives                ; Off                ; Off                ;
; Timing-Driven Synthesis                                          ; On                 ; On                 ;
; Report Parameter Settings                                        ; On                 ; On                 ;
; Report Source Assignments                                        ; On                 ; On                 ;
; Report Connectivity Checks                                       ; On                 ; On                 ;
; Ignore Maximum Fan-Out Assignments                               ; Off                ; Off                ;
; Synchronization Register Chain Length                            ; 2                  ; 2                  ;
; Power Optimization During Synthesis                              ; Normal compilation ; Normal compilation ;
; HDL message level                                                ; Level2             ; Level2             ;
; Suppress Register Optimization Related Messages                  ; Off                ; Off                ;
; Number of Removed Registers Reported in Synthesis Report         ; 5000               ; 5000               ;
; Number of Swept Nodes Reported in Synthesis Report               ; 5000               ; 5000               ;
; Number of Inverted Registers Reported in Synthesis Report        ; 100                ; 100                ;
; Clock MUX Protection                                             ; On                 ; On                 ;
; Auto Gated Clock Conversion                                      ; Off                ; Off                ;
; Block Design Naming                                              ; Auto               ; Auto               ;
; SDC constraint protection                                        ; Off                ; Off                ;
; Synthesis Effort                                                 ; Auto               ; Auto               ;
; Shift Register Replacement - Allow Asynchronous Clear Signal     ; On                 ; On                 ;
; Pre-Mapping Resynthesis Optimization                             ; Off                ; Off                ;
; Analysis & Synthesis Message Level                               ; Medium             ; Medium             ;
; Disable Register Merging Across Hierarchies                      ; Auto               ; Auto               ;
; Resource Aware Inference For Block RAM                           ; On                 ; On                 ;
+------------------------------------------------------------------+--------------------+--------------------+


+------------------------------------------+
; Parallel Compilation                     ;
+----------------------------+-------------+
; Processors                 ; Number      ;
+----------------------------+-------------+
; Number detected on machine ; 4           ;
; Maximum allowed            ; 2           ;
;                            ;             ;
; Average used               ; 1.00        ;
; Maximum used               ; 1           ;
;                            ;             ;
; Usage by Processor         ; % Time Used ;
;     Processor 1            ; 100.0%      ;
+----------------------------+-------------+


+-------------------------------+
; Analysis & Synthesis Messages ;
+-------------------------------+
Info: *******************************************************************
Info: Running Quartus Prime Analysis & Synthesis
    Info: Version 18.0.0 Build 614 04/24/2018 SJ Lite Edition
    Info: Processing started: Wed Oct 31 12:42:05 2018
Info: Command: quartus_map --read_settings_files=on --write_settings_files=off tp1 -c tp1
Warning (18236): Number of processors has not been specified which may cause overloading on shared machines.  Set the global assignment NUM_PARALLEL_PROCESSORS in your QSF to an appropriate value for best performance.
Info (20030): Parallel compilation is enabled and will use 2 of the 2 processors detected
Info (12248): Elaborating Platform Designer system entity "SoPC.qsys"
Info (12250): 2018.10.31.12:42:28 Progress: Loading tp2/SoPC.qsys
Info (12250): 2018.10.31.12:42:29 Progress: Reading input file
Info (12250): 2018.10.31.12:42:29 Progress: Adding CPU [altera_nios2_gen2 18.0]
Info (12250): 2018.10.31.12:42:31 Progress: Parameterizing module CPU
Info (12250): 2018.10.31.12:42:31 Progress: Adding LCD_0 [LCD 1.0]
Info (12250): 2018.10.31.12:42:31 Progress: Parameterizing module LCD_0
Info (12250): 2018.10.31.12:42:31 Progress: Adding SDRAM_controller [altera_avalon_new_sdram_controller 18.0]
Info (12250): 2018.10.31.12:42:32 Progress: Parameterizing module SDRAM_controller
Info (12250): 2018.10.31.12:42:32 Progress: Adding altpll_0 [altpll 18.0]
Info (12250): 2018.10.31.12:42:32 Progress: Parameterizing module altpll_0
Info (12250): 2018.10.31.12:42:32 Progress: Adding clk_0 [clock_source 18.0]
Info (12250): 2018.10.31.12:42:32 Progress: Parameterizing module clk_0
Info (12250): 2018.10.31.12:42:32 Progress: Adding jtag_uart [altera_avalon_jtag_uart 18.0]
Info (12250): 2018.10.31.12:42:32 Progress: Parameterizing module jtag_uart
Info (12250): 2018.10.31.12:42:32 Progress: Adding myGPIO_0 [myGPIO 1.0]
Info (12250): 2018.10.31.12:42:32 Progress: Parameterizing module myGPIO_0
Info (12250): 2018.10.31.12:42:32 Progress: Adding sysid_qsys_0 [altera_avalon_sysid_qsys 18.0]
Info (12250): 2018.10.31.12:42:32 Progress: Parameterizing module sysid_qsys_0
Info (12250): 2018.10.31.12:42:32 Progress: Adding timer_0 [altera_avalon_timer 18.0]
Info (12250): 2018.10.31.12:42:32 Progress: Parameterizing module timer_0
Info (12250): 2018.10.31.12:42:32 Progress: Building connections
Info (12250): 2018.10.31.12:42:32 Progress: Parameterizing connections
Info (12250): 2018.10.31.12:42:32 Progress: Validating
Info (12250): 2018.10.31.12:42:33 Progress: Done reading input file
Info (12250): SoPC.SDRAM_controller: SDRAM Controller will only be supported in Quartus Prime Standard Edition in the future release.
Info (12250): SoPC.jtag_uart: JTAG UART IP input clock need to be at least double (2x) the operating frequency of JTAG TCK on board
Info (12250): SoPC.sysid_qsys_0: System ID is not assigned automatically. Edit the System ID parameter to provide a unique ID
Info (12250): SoPC.sysid_qsys_0: Time stamp will be automatically updated when this component is generated.
Info (12250): SoPC: Generating SoPC "SoPC" for QUARTUS_SYNTH
Info (12250): Inserting clock-crossing logic between cmd_demux.src5 and cmd_mux_005.sink0
Info (12250): Inserting clock-crossing logic between rsp_demux_005.src0 and rsp_mux.sink5
Info (12250): CPU: "SoPC" instantiated altera_nios2_gen2 "CPU"
Info (12250): LCD_0: "SoPC" instantiated LCD "LCD_0"
Info (12250): SDRAM_controller: Starting RTL generation for module 'SoPC_SDRAM_controller'
Info (12250): SDRAM_controller:   Generation command is [exec /opt/intelFPGA_lite/18.0/quartus/linux64/perl/bin/perl -I /opt/intelFPGA_lite/18.0/quartus/linux64/perl/lib -I /opt/intelFPGA_lite/18.0/quartus/sopc_builder/bin/europa -I /opt/intelFPGA_lite/18.0/quartus/sopc_builder/bin/perl_lib -I /opt/intelFPGA_lite/18.0/quartus/sopc_builder/bin -I /opt/intelFPGA_lite/18.0/quartus/../ip/altera/sopc_builder_ip/common -I /opt/intelFPGA_lite/18.0/quartus/../ip/altera/sopc_builder_ip/altera_avalon_new_sdram_controller -- /opt/intelFPGA_lite/18.0/quartus/../ip/altera/sopc_builder_ip/altera_avalon_new_sdram_controller/generate_rtl.pl --name=SoPC_SDRAM_controller --dir=/tmp/alt7835_9118650536589534945.dir/0003_SDRAM_controller_gen/ --quartus_dir=/opt/intelFPGA_lite/18.0/quartus --verilog --config=/tmp/alt7835_9118650536589534945.dir/0003_SDRAM_controller_gen//SoPC_SDRAM_controller_component_configuration.pl  --do_build_sim=0  ]
Info (12250): SDRAM_controller: Done RTL generation for module 'SoPC_SDRAM_controller'
Info (12250): SDRAM_controller: "SoPC" instantiated altera_avalon_new_sdram_controller "SDRAM_controller"
Info (12250): Altpll_0: "SoPC" instantiated altpll "altpll_0"
Info (12250): Jtag_uart: Starting RTL generation for module 'SoPC_jtag_uart'
Info (12250): Jtag_uart:   Generation command is [exec /opt/intelFPGA_lite/18.0/quartus/linux64/perl/bin/perl -I /opt/intelFPGA_lite/18.0/quartus/linux64/perl/lib -I /opt/intelFPGA_lite/18.0/quartus/sopc_builder/bin/europa -I /opt/intelFPGA_lite/18.0/quartus/sopc_builder/bin/perl_lib -I /opt/intelFPGA_lite/18.0/quartus/sopc_builder/bin -I /opt/intelFPGA_lite/18.0/quartus/../ip/altera/sopc_builder_ip/common -I /opt/intelFPGA_lite/18.0/quartus/../ip/altera/sopc_builder_ip/altera_avalon_jtag_uart -- /opt/intelFPGA_lite/18.0/quartus/../ip/altera/sopc_builder_ip/altera_avalon_jtag_uart/generate_rtl.pl --name=SoPC_jtag_uart --dir=/tmp/alt7835_9118650536589534945.dir/0006_jtag_uart_gen/ --quartus_dir=/opt/intelFPGA_lite/18.0/quartus --verilog --config=/tmp/alt7835_9118650536589534945.dir/0006_jtag_uart_gen//SoPC_jtag_uart_component_configuration.pl  --do_build_sim=0  ]
Info (12250): Jtag_uart: Done RTL generation for module 'SoPC_jtag_uart'
Info (12250): Jtag_uart: "SoPC" instantiated altera_avalon_jtag_uart "jtag_uart"
Info (12250): MyGPIO_0: "SoPC" instantiated myGPIO "myGPIO_0"
Info (12250): Sysid_qsys_0: "SoPC" instantiated altera_avalon_sysid_qsys "sysid_qsys_0"
Info (12250): Timer_0: Starting RTL generation for module 'SoPC_timer_0'
Info (12250): Timer_0:   Generation command is [exec /opt/intelFPGA_lite/18.0/quartus/linux64//perl/bin/perl -I /opt/intelFPGA_lite/18.0/quartus/linux64//perl/lib -I /opt/intelFPGA_lite/18.0/quartus/sopc_builder/bin/europa -I /opt/intelFPGA_lite/18.0/quartus/sopc_builder/bin/perl_lib -I /opt/intelFPGA_lite/18.0/quartus/sopc_builder/bin -I /opt/intelFPGA_lite/18.0/quartus/../ip/altera/sopc_builder_ip/common -I /opt/intelFPGA_lite/18.0/quartus/../ip/altera/sopc_builder_ip/altera_avalon_timer -- /opt/intelFPGA_lite/18.0/quartus/../ip/altera/sopc_builder_ip/altera_avalon_timer/generate_rtl.pl --name=SoPC_timer_0 --dir=/tmp/alt7835_9118650536589534945.dir/0009_timer_0_gen/ --quartus_dir=/opt/intelFPGA_lite/18.0/quartus --verilog --config=/tmp/alt7835_9118650536589534945.dir/0009_timer_0_gen//SoPC_timer_0_component_configuration.pl  --do_build_sim=0  ]
Info (12250): Timer_0: Done RTL generation for module 'SoPC_timer_0'
Info (12250): Timer_0: "SoPC" instantiated altera_avalon_timer "timer_0"
Info (12250): Avalon_st_adapter: Inserting error_adapter: error_adapter_0
Info (12250): Avalon_st_adapter_001: Inserting error_adapter: error_adapter_0
Info (12250): Avalon_st_adapter_002: Inserting error_adapter: error_adapter_0
Info (12250): Avalon_st_adapter_003: Inserting error_adapter: error_adapter_0
Info (12250): Avalon_st_adapter_004: Inserting error_adapter: error_adapter_0
Info (12250): Avalon_st_adapter_005: Inserting error_adapter: error_adapter_0
Info (12250): Avalon_st_adapter_006: Inserting error_adapter: error_adapter_0
Info (12250): Avalon_st_adapter_007: Inserting error_adapter: error_adapter_0
Info (12250): Mm_interconnect_0: "SoPC" instantiated altera_mm_interconnect "mm_interconnect_0"
Info (12250): Irq_mapper: "SoPC" instantiated altera_irq_mapper "irq_mapper"
Info (12250): Rst_controller: "SoPC" instantiated altera_reset_controller "rst_controller"
Info (12250): Cpu: Starting RTL generation for module 'SoPC_CPU_cpu'
Info (12250): Cpu:   Generation command is [exec /opt/intelFPGA_lite/18.0/quartus/linux64//eperlcmd -I /opt/intelFPGA_lite/18.0/quartus/linux64//perl/lib -I /opt/intelFPGA_lite/18.0/quartus/sopc_builder/bin/europa -I /opt/intelFPGA_lite/18.0/quartus/sopc_builder/bin/perl_lib -I /opt/intelFPGA_lite/18.0/quartus/sopc_builder/bin -I /opt/intelFPGA_lite/18.0/quartus/../ip/altera/nios2_ip/altera_nios2_gen2/cpu_lib -I /opt/intelFPGA_lite/18.0/quartus/../ip/altera/nios2_ip/altera_nios2_gen2/nios_lib -I /opt/intelFPGA_lite/18.0/quartus/../ip/altera/nios2_ip/altera_nios2_gen2 -I /opt/intelFPGA_lite/18.0/quartus/../ip/altera/nios2_ip/altera_nios2_gen2 -- /opt/intelFPGA_lite/18.0/quartus/../ip/altera/nios2_ip/altera_nios2_gen2/generate_rtl.epl --name=SoPC_CPU_cpu --dir=/tmp/alt7835_9118650536589534945.dir/0012_cpu_gen/ --quartus_bindir=/opt/intelFPGA_lite/18.0/quartus/linux64/ --verilog --config=/tmp/alt7835_9118650536589534945.dir/0012_cpu_gen//SoPC_CPU_cpu_processor_configuration.pl  --do_build_sim=0  ]
Info (12250): Cpu: # 2018.10.31 12:42:47 (*) Starting Nios II generation
Info (12250): Cpu: # 2018.10.31 12:42:47 (*)   Checking for plaintext license.
Info (12250): Cpu: # 2018.10.31 12:42:48 (*)   Couldn't query license setup in Quartus directory /opt/intelFPGA_lite/18.0/quartus/linux64/
Info (12250): Cpu: # 2018.10.31 12:42:48 (*)   Defaulting to contents of LM_LICENSE_FILE environment variable
Info (12250): Cpu: # 2018.10.31 12:42:48 (*)   LM_LICENSE_FILE environment variable is empty
Info (12250): Cpu: # 2018.10.31 12:42:48 (*)   Plaintext license not found.
Info (12250): Cpu: # 2018.10.31 12:42:48 (*)   Checking for encrypted license (non-evaluation).
Info (12250): Cpu: # 2018.10.31 12:42:48 (*)   Couldn't query license setup in Quartus directory /opt/intelFPGA_lite/18.0/quartus/linux64/
Info (12250): Cpu: # 2018.10.31 12:42:48 (*)   Defaulting to contents of LM_LICENSE_FILE environment variable
Info (12250): Cpu: # 2018.10.31 12:42:48 (*)   LM_LICENSE_FILE environment variable is empty
Info (12250): Cpu: # 2018.10.31 12:42:48 (*)   Encrypted license not found.  Defaulting to OCP evaluation license (produces a time-limited SOF)
Info (12250): Cpu: # 2018.10.31 12:42:48 (*)   Elaborating CPU configuration settings
Info (12250): Cpu: # 2018.10.31 12:42:48 (*)   Creating all objects for CPU
Info (12250): Cpu: # 2018.10.31 12:42:48 (*)     Testbench
Info (12250): Cpu: # 2018.10.31 12:42:49 (*)     Instruction decoding
Info (12250): Cpu: # 2018.10.31 12:42:49 (*)       Instruction fields
Info (12250): Cpu: # 2018.10.31 12:42:49 (*)       Instruction decodes
Info (12250): Cpu: # 2018.10.31 12:42:49 (*)       Signals for RTL simulation waveforms
Info (12250): Cpu: # 2018.10.31 12:42:49 (*)       Instruction controls
Info (12250): Cpu: # 2018.10.31 12:42:49 (*)     Pipeline frontend
Info (12250): Cpu: # 2018.10.31 12:42:49 (*)     Pipeline backend
Info (12250): Cpu: # 2018.10.31 12:42:52 (*)   Generating RTL from CPU objects
Info (12250): Cpu: # 2018.10.31 12:42:54 (*)   Creating encrypted RTL
Info (12250): Cpu: # 2018.10.31 12:42:55 (*) Done Nios II generation
Info (12250): Cpu: Done RTL generation for module 'SoPC_CPU_cpu'
Info (12250): Cpu: "CPU" instantiated altera_nios2_gen2_unit "cpu"
Info (12250): CPU_data_master_translator: "mm_interconnect_0" instantiated altera_merlin_master_translator "CPU_data_master_translator"
Info (12250): Jtag_uart_avalon_jtag_slave_translator: "mm_interconnect_0" instantiated altera_merlin_slave_translator "jtag_uart_avalon_jtag_slave_translator"
Info (12250): CPU_data_master_agent: "mm_interconnect_0" instantiated altera_merlin_master_agent "CPU_data_master_agent"
Info (12250): Jtag_uart_avalon_jtag_slave_agent: "mm_interconnect_0" instantiated altera_merlin_slave_agent "jtag_uart_avalon_jtag_slave_agent"
Info (12250): Jtag_uart_avalon_jtag_slave_agent_rsp_fifo: "mm_interconnect_0" instantiated altera_avalon_sc_fifo "jtag_uart_avalon_jtag_slave_agent_rsp_fifo"
Info (12250): Router: "mm_interconnect_0" instantiated altera_merlin_router "router"
Info (12250): Router_001: "mm_interconnect_0" instantiated altera_merlin_router "router_001"
Info (12250): Router_002: "mm_interconnect_0" instantiated altera_merlin_router "router_002"
Info (12250): Router_006: "mm_interconnect_0" instantiated altera_merlin_router "router_006"
Info (12250): Router_008: "mm_interconnect_0" instantiated altera_merlin_router "router_008"
Info (12250): CPU_data_master_limiter: "mm_interconnect_0" instantiated altera_merlin_traffic_limiter "CPU_data_master_limiter"
Info (12250): Reusing file /home/quartus/t-embhardw/tp2/db/ip/SoPC/submodules/altera_avalon_sc_fifo.v
Info (12250): SDRAM_controller_s1_burst_adapter: "mm_interconnect_0" instantiated altera_merlin_burst_adapter "SDRAM_controller_s1_burst_adapter"
Info (12250): Reusing file /home/quartus/t-embhardw/tp2/db/ip/SoPC/submodules/altera_avalon_st_pipeline_base.v
Info (12250): Cmd_demux: "mm_interconnect_0" instantiated altera_merlin_demultiplexer "cmd_demux"
Info (12250): Cmd_demux_001: "mm_interconnect_0" instantiated altera_merlin_demultiplexer "cmd_demux_001"
Info (12250): Cmd_mux: "mm_interconnect_0" instantiated altera_merlin_multiplexer "cmd_mux"
Info (12250): Cmd_mux_004: "mm_interconnect_0" instantiated altera_merlin_multiplexer "cmd_mux_004"
Info (12250): Reusing file /home/quartus/t-embhardw/tp2/db/ip/SoPC/submodules/altera_merlin_arbitrator.sv
Info (12250): Rsp_demux: "mm_interconnect_0" instantiated altera_merlin_demultiplexer "rsp_demux"
Info (12250): Rsp_demux_004: "mm_interconnect_0" instantiated altera_merlin_demultiplexer "rsp_demux_004"
Info (12250): Rsp_mux: "mm_interconnect_0" instantiated altera_merlin_multiplexer "rsp_mux"
Info (12250): Reusing file /home/quartus/t-embhardw/tp2/db/ip/SoPC/submodules/altera_merlin_arbitrator.sv
Info (12250): Rsp_mux_001: "mm_interconnect_0" instantiated altera_merlin_multiplexer "rsp_mux_001"
Info (12250): Reusing file /home/quartus/t-embhardw/tp2/db/ip/SoPC/submodules/altera_merlin_arbitrator.sv
Info (12250): SDRAM_controller_s1_rsp_width_adapter: "mm_interconnect_0" instantiated altera_merlin_width_adapter "SDRAM_controller_s1_rsp_width_adapter"
Info (12250): Reusing file /home/quartus/t-embhardw/tp2/db/ip/SoPC/submodules/altera_merlin_address_alignment.sv
Info (12250): Reusing file /home/quartus/t-embhardw/tp2/db/ip/SoPC/submodules/altera_merlin_burst_uncompressor.sv
Info (12250): Crosser: "mm_interconnect_0" instantiated altera_avalon_st_handshake_clock_crosser "crosser"
Info (12250): Reusing file /home/quartus/t-embhardw/tp2/db/ip/SoPC/submodules/altera_avalon_st_pipeline_base.v
Info (12250): Avalon_st_adapter: "mm_interconnect_0" instantiated altera_avalon_st_adapter "avalon_st_adapter"
Info (12250): Avalon_st_adapter_006: "mm_interconnect_0" instantiated altera_avalon_st_adapter "avalon_st_adapter_006"
Info (12250): Error_adapter_0: "avalon_st_adapter" instantiated error_adapter "error_adapter_0"
Info (12250): Error_adapter_0: "avalon_st_adapter_006" instantiated error_adapter "error_adapter_0"
Info (12250): SoPC: Done "SoPC" with 39 modules, 69 files
Info (12249): Finished elaborating Platform Designer system entity "SoPC.qsys"
Info (12021): Found 1 design units, including 1 entities, in source file tp1.bdf
    Info (12023): Found entity 1: tp1
Info (12021): Found 1 design units, including 1 entities, in source file db/ip/SoPC/SoPC.v
    Info (12023): Found entity 1: SoPC File: /home/quartus/t-embhardw/tp2/db/ip/SoPC/SoPC.v Line: 6
Info (12021): Found 2 design units, including 1 entities, in source file db/ip/SoPC/submodules/GPIO.vhd
    Info (12022): Found design unit 1: ParallelPort-comp File: /home/quartus/t-embhardw/tp2/db/ip/SoPC/submodules/GPIO.vhd Line: 24
    Info (12023): Found entity 1: ParallelPort File: /home/quartus/t-embhardw/tp2/db/ip/SoPC/submodules/GPIO.vhd Line: 4
Info (12021): Found 2 design units, including 1 entities, in source file db/ip/SoPC/submodules/LCD_control.vhd
    Info (12022): Found design unit 1: LCD_control-comp File: /home/quartus/t-embhardw/tp2/db/ip/SoPC/submodules/LCD_control.vhd Line: 31
    Info (12023): Found entity 1: LCD_control File: /home/quartus/t-embhardw/tp2/db/ip/SoPC/submodules/LCD_control.vhd Line: 4
Info (12021): Found 1 design units, including 1 entities, in source file db/ip/SoPC/submodules/SoPC_CPU.v
    Info (12023): Found entity 1: SoPC_CPU File: /home/quartus/t-embhardw/tp2/db/ip/SoPC/submodules/SoPC_CPU.v Line: 9
Info (12021): Found 27 design units, including 27 entities, in source file db/ip/SoPC/submodules/SoPC_CPU_cpu.v
    Info (12023): Found entity 1: SoPC_CPU_cpu_ic_data_module File: /home/quartus/t-embhardw/tp2/db/ip/SoPC/submodules/SoPC_CPU_cpu.v Line: 21
    Info (12023): Found entity 2: SoPC_CPU_cpu_ic_tag_module File: /home/quartus/t-embhardw/tp2/db/ip/SoPC/submodules/SoPC_CPU_cpu.v Line: 89
    Info (12023): Found entity 3: SoPC_CPU_cpu_bht_module File: /home/quartus/t-embhardw/tp2/db/ip/SoPC/submodules/SoPC_CPU_cpu.v Line: 158
    Info (12023): Found entity 4: SoPC_CPU_cpu_register_bank_a_module File: /home/quartus/t-embhardw/tp2/db/ip/SoPC/submodules/SoPC_CPU_cpu.v Line: 227
    Info (12023): Found entity 5: SoPC_CPU_cpu_register_bank_b_module File: /home/quartus/t-embhardw/tp2/db/ip/SoPC/submodules/SoPC_CPU_cpu.v Line: 293
    Info (12023): Found entity 6: SoPC_CPU_cpu_dc_tag_module File: /home/quartus/t-embhardw/tp2/db/ip/SoPC/submodules/SoPC_CPU_cpu.v Line: 359
    Info (12023): Found entity 7: SoPC_CPU_cpu_dc_data_module File: /home/quartus/t-embhardw/tp2/db/ip/SoPC/submodules/SoPC_CPU_cpu.v Line: 425
    Info (12023): Found entity 8: SoPC_CPU_cpu_dc_victim_module File: /home/quartus/t-embhardw/tp2/db/ip/SoPC/submodules/SoPC_CPU_cpu.v Line: 494
    Info (12023): Found entity 9: SoPC_CPU_cpu_nios2_oci_debug File: /home/quartus/t-embhardw/tp2/db/ip/SoPC/submodules/SoPC_CPU_cpu.v Line: 562
    Info (12023): Found entity 10: SoPC_CPU_cpu_nios2_oci_break File: /home/quartus/t-embhardw/tp2/db/ip/SoPC/submodules/SoPC_CPU_cpu.v Line: 708
    Info (12023): Found entity 11: SoPC_CPU_cpu_nios2_oci_xbrk File: /home/quartus/t-embhardw/tp2/db/ip/SoPC/submodules/SoPC_CPU_cpu.v Line: 1001
    Info (12023): Found entity 12: SoPC_CPU_cpu_nios2_oci_dbrk File: /home/quartus/t-embhardw/tp2/db/ip/SoPC/submodules/SoPC_CPU_cpu.v Line: 1262
    Info (12023): Found entity 13: SoPC_CPU_cpu_nios2_oci_itrace File: /home/quartus/t-embhardw/tp2/db/ip/SoPC/submodules/SoPC_CPU_cpu.v Line: 1451
    Info (12023): Found entity 14: SoPC_CPU_cpu_nios2_oci_td_mode File: /home/quartus/t-embhardw/tp2/db/ip/SoPC/submodules/SoPC_CPU_cpu.v Line: 1634
    Info (12023): Found entity 15: SoPC_CPU_cpu_nios2_oci_dtrace File: /home/quartus/t-embhardw/tp2/db/ip/SoPC/submodules/SoPC_CPU_cpu.v Line: 1702
    Info (12023): Found entity 16: SoPC_CPU_cpu_nios2_oci_compute_input_tm_cnt File: /home/quartus/t-embhardw/tp2/db/ip/SoPC/submodules/SoPC_CPU_cpu.v Line: 1784
    Info (12023): Found entity 17: SoPC_CPU_cpu_nios2_oci_fifo_wrptr_inc File: /home/quartus/t-embhardw/tp2/db/ip/SoPC/submodules/SoPC_CPU_cpu.v Line: 1856
    Info (12023): Found entity 18: SoPC_CPU_cpu_nios2_oci_fifo_cnt_inc File: /home/quartus/t-embhardw/tp2/db/ip/SoPC/submodules/SoPC_CPU_cpu.v Line: 1899
    Info (12023): Found entity 19: SoPC_CPU_cpu_nios2_oci_fifo File: /home/quartus/t-embhardw/tp2/db/ip/SoPC/submodules/SoPC_CPU_cpu.v Line: 1946
    Info (12023): Found entity 20: SoPC_CPU_cpu_nios2_oci_pib File: /home/quartus/t-embhardw/tp2/db/ip/SoPC/submodules/SoPC_CPU_cpu.v Line: 2432
    Info (12023): Found entity 21: SoPC_CPU_cpu_nios2_oci_im File: /home/quartus/t-embhardw/tp2/db/ip/SoPC/submodules/SoPC_CPU_cpu.v Line: 2455
    Info (12023): Found entity 22: SoPC_CPU_cpu_nios2_performance_monitors File: /home/quartus/t-embhardw/tp2/db/ip/SoPC/submodules/SoPC_CPU_cpu.v Line: 2525
    Info (12023): Found entity 23: SoPC_CPU_cpu_nios2_avalon_reg File: /home/quartus/t-embhardw/tp2/db/ip/SoPC/submodules/SoPC_CPU_cpu.v Line: 2542
    Info (12023): Found entity 24: SoPC_CPU_cpu_ociram_sp_ram_module File: /home/quartus/t-embhardw/tp2/db/ip/SoPC/submodules/SoPC_CPU_cpu.v Line: 2635
    Info (12023): Found entity 25: SoPC_CPU_cpu_nios2_ocimem File: /home/quartus/t-embhardw/tp2/db/ip/SoPC/submodules/SoPC_CPU_cpu.v Line: 2700
    Info (12023): Found entity 26: SoPC_CPU_cpu_nios2_oci File: /home/quartus/t-embhardw/tp2/db/ip/SoPC/submodules/SoPC_CPU_cpu.v Line: 2881
    Info (12023): Found entity 27: SoPC_CPU_cpu File: /home/quartus/t-embhardw/tp2/db/ip/SoPC/submodules/SoPC_CPU_cpu.v Line: 3426
Info (12021): Found 1 design units, including 1 entities, in source file db/ip/SoPC/submodules/SoPC_CPU_cpu_debug_slave_sysclk.v
    Info (12023): Found entity 1: SoPC_CPU_cpu_debug_slave_sysclk File: /home/quartus/t-embhardw/tp2/db/ip/SoPC/submodules/SoPC_CPU_cpu_debug_slave_sysclk.v Line: 21
Info (12021): Found 1 design units, including 1 entities, in source file db/ip/SoPC/submodules/SoPC_CPU_cpu_debug_slave_tck.v
    Info (12023): Found entity 1: SoPC_CPU_cpu_debug_slave_tck File: /home/quartus/t-embhardw/tp2/db/ip/SoPC/submodules/SoPC_CPU_cpu_debug_slave_tck.v Line: 21
Info (12021): Found 1 design units, including 1 entities, in source file db/ip/SoPC/submodules/SoPC_CPU_cpu_debug_slave_wrapper.v
    Info (12023): Found entity 1: SoPC_CPU_cpu_debug_slave_wrapper File: /home/quartus/t-embhardw/tp2/db/ip/SoPC/submodules/SoPC_CPU_cpu_debug_slave_wrapper.v Line: 21
Info (12021): Found 1 design units, including 1 entities, in source file db/ip/SoPC/submodules/SoPC_CPU_cpu_mult_cell.v
    Info (12023): Found entity 1: SoPC_CPU_cpu_mult_cell File: /home/quartus/t-embhardw/tp2/db/ip/SoPC/submodules/SoPC_CPU_cpu_mult_cell.v Line: 21
Info (12021): Found 1 design units, including 1 entities, in source file db/ip/SoPC/submodules/SoPC_CPU_cpu_test_bench.v
    Info (12023): Found entity 1: SoPC_CPU_cpu_test_bench File: /home/quartus/t-embhardw/tp2/db/ip/SoPC/submodules/SoPC_CPU_cpu_test_bench.v Line: 21
Info (12021): Found 2 design units, including 2 entities, in source file db/ip/SoPC/submodules/SoPC_SDRAM_controller.v
    Info (12023): Found entity 1: SoPC_SDRAM_controller_input_efifo_module File: /home/quartus/t-embhardw/tp2/db/ip/SoPC/submodules/SoPC_SDRAM_controller.v Line: 21
    Info (12023): Found entity 2: SoPC_SDRAM_controller File: /home/quartus/t-embhardw/tp2/db/ip/SoPC/submodules/SoPC_SDRAM_controller.v Line: 159
Info (12021): Found 4 design units, including 4 entities, in source file db/ip/SoPC/submodules/SoPC_altpll_0.v
    Info (12023): Found entity 1: SoPC_altpll_0_dffpipe_l2c File: /home/quartus/t-embhardw/tp2/db/ip/SoPC/submodules/SoPC_altpll_0.v Line: 37
    Info (12023): Found entity 2: SoPC_altpll_0_stdsync_sv6 File: /home/quartus/t-embhardw/tp2/db/ip/SoPC/submodules/SoPC_altpll_0.v Line: 98
    Info (12023): Found entity 3: SoPC_altpll_0_altpll_pka2 File: /home/quartus/t-embhardw/tp2/db/ip/SoPC/submodules/SoPC_altpll_0.v Line: 130
    Info (12023): Found entity 4: SoPC_altpll_0 File: /home/quartus/t-embhardw/tp2/db/ip/SoPC/submodules/SoPC_altpll_0.v Line: 217
Info (12021): Found 1 design units, including 1 entities, in source file db/ip/SoPC/submodules/SoPC_irq_mapper.sv
    Info (12023): Found entity 1: SoPC_irq_mapper File: /home/quartus/t-embhardw/tp2/db/ip/SoPC/submodules/SoPC_irq_mapper.sv Line: 31
Info (12021): Found 5 design units, including 5 entities, in source file db/ip/SoPC/submodules/SoPC_jtag_uart.v
    Info (12023): Found entity 1: SoPC_jtag_uart_sim_scfifo_w File: /home/quartus/t-embhardw/tp2/db/ip/SoPC/submodules/SoPC_jtag_uart.v Line: 21
    Info (12023): Found entity 2: SoPC_jtag_uart_scfifo_w File: /home/quartus/t-embhardw/tp2/db/ip/SoPC/submodules/SoPC_jtag_uart.v Line: 78
    Info (12023): Found entity 3: SoPC_jtag_uart_sim_scfifo_r File: /home/quartus/t-embhardw/tp2/db/ip/SoPC/submodules/SoPC_jtag_uart.v Line: 164
    Info (12023): Found entity 4: SoPC_jtag_uart_scfifo_r File: /home/quartus/t-embhardw/tp2/db/ip/SoPC/submodules/SoPC_jtag_uart.v Line: 243
    Info (12023): Found entity 5: SoPC_jtag_uart File: /home/quartus/t-embhardw/tp2/db/ip/SoPC/submodules/SoPC_jtag_uart.v Line: 331
Info (12021): Found 1 design units, including 1 entities, in source file db/ip/SoPC/submodules/SoPC_mm_interconnect_0.v
    Info (12023): Found entity 1: SoPC_mm_interconnect_0 File: /home/quartus/t-embhardw/tp2/db/ip/SoPC/submodules/SoPC_mm_interconnect_0.v Line: 9
Info (12021): Found 1 design units, including 1 entities, in source file db/ip/SoPC/submodules/SoPC_mm_interconnect_0_avalon_st_adapter.v
    Info (12023): Found entity 1: SoPC_mm_interconnect_0_avalon_st_adapter File: /home/quartus/t-embhardw/tp2/db/ip/SoPC/submodules/SoPC_mm_interconnect_0_avalon_st_adapter.v Line: 9
Info (12021): Found 1 design units, including 1 entities, in source file db/ip/SoPC/submodules/SoPC_mm_interconnect_0_avalon_st_adapter_006.v
    Info (12023): Found entity 1: SoPC_mm_interconnect_0_avalon_st_adapter_006 File: /home/quartus/t-embhardw/tp2/db/ip/SoPC/submodules/SoPC_mm_interconnect_0_avalon_st_adapter_006.v Line: 9
Info (12021): Found 1 design units, including 1 entities, in source file db/ip/SoPC/submodules/SoPC_mm_interconnect_0_avalon_st_adapter_006_error_adapter_0.sv
    Info (12023): Found entity 1: SoPC_mm_interconnect_0_avalon_st_adapter_006_error_adapter_0 File: /home/quartus/t-embhardw/tp2/db/ip/SoPC/submodules/SoPC_mm_interconnect_0_avalon_st_adapter_006_error_adapter_0.sv Line: 66
Info (12021): Found 1 design units, including 1 entities, in source file db/ip/SoPC/submodules/SoPC_mm_interconnect_0_avalon_st_adapter_error_adapter_0.sv
    Info (12023): Found entity 1: SoPC_mm_interconnect_0_avalon_st_adapter_error_adapter_0 File: /home/quartus/t-embhardw/tp2/db/ip/SoPC/submodules/SoPC_mm_interconnect_0_avalon_st_adapter_error_adapter_0.sv Line: 66
Info (12021): Found 1 design units, including 1 entities, in source file db/ip/SoPC/submodules/SoPC_mm_interconnect_0_cmd_demux.sv
    Info (12023): Found entity 1: SoPC_mm_interconnect_0_cmd_demux File: /home/quartus/t-embhardw/tp2/db/ip/SoPC/submodules/SoPC_mm_interconnect_0_cmd_demux.sv Line: 43
Info (12021): Found 1 design units, including 1 entities, in source file db/ip/SoPC/submodules/SoPC_mm_interconnect_0_cmd_demux_001.sv
    Info (12023): Found entity 1: SoPC_mm_interconnect_0_cmd_demux_001 File: /home/quartus/t-embhardw/tp2/db/ip/SoPC/submodules/SoPC_mm_interconnect_0_cmd_demux_001.sv Line: 43
Info (12021): Found 1 design units, including 1 entities, in source file db/ip/SoPC/submodules/SoPC_mm_interconnect_0_cmd_mux.sv
    Info (12023): Found entity 1: SoPC_mm_interconnect_0_cmd_mux File: /home/quartus/t-embhardw/tp2/db/ip/SoPC/submodules/SoPC_mm_interconnect_0_cmd_mux.sv Line: 51
Info (12021): Found 1 design units, including 1 entities, in source file db/ip/SoPC/submodules/SoPC_mm_interconnect_0_cmd_mux_004.sv
    Info (12023): Found entity 1: SoPC_mm_interconnect_0_cmd_mux_004 File: /home/quartus/t-embhardw/tp2/db/ip/SoPC/submodules/SoPC_mm_interconnect_0_cmd_mux_004.sv Line: 51
Info (12021): Found 2 design units, including 2 entities, in source file db/ip/SoPC/submodules/SoPC_mm_interconnect_0_router.sv
    Info (12023): Found entity 1: SoPC_mm_interconnect_0_router_default_decode File: /home/quartus/t-embhardw/tp2/db/ip/SoPC/submodules/SoPC_mm_interconnect_0_router.sv Line: 45
    Info (12023): Found entity 2: SoPC_mm_interconnect_0_router File: /home/quartus/t-embhardw/tp2/db/ip/SoPC/submodules/SoPC_mm_interconnect_0_router.sv Line: 84
Info (12021): Found 2 design units, including 2 entities, in source file db/ip/SoPC/submodules/SoPC_mm_interconnect_0_router_001.sv
    Info (12023): Found entity 1: SoPC_mm_interconnect_0_router_001_default_decode File: /home/quartus/t-embhardw/tp2/db/ip/SoPC/submodules/SoPC_mm_interconnect_0_router_001.sv Line: 45
    Info (12023): Found entity 2: SoPC_mm_interconnect_0_router_001 File: /home/quartus/t-embhardw/tp2/db/ip/SoPC/submodules/SoPC_mm_interconnect_0_router_001.sv Line: 84
Info (12021): Found 2 design units, including 2 entities, in source file db/ip/SoPC/submodules/SoPC_mm_interconnect_0_router_002.sv
    Info (12023): Found entity 1: SoPC_mm_interconnect_0_router_002_default_decode File: /home/quartus/t-embhardw/tp2/db/ip/SoPC/submodules/SoPC_mm_interconnect_0_router_002.sv Line: 45
    Info (12023): Found entity 2: SoPC_mm_interconnect_0_router_002 File: /home/quartus/t-embhardw/tp2/db/ip/SoPC/submodules/SoPC_mm_interconnect_0_router_002.sv Line: 84
Info (12021): Found 2 design units, including 2 entities, in source file db/ip/SoPC/submodules/SoPC_mm_interconnect_0_router_006.sv
    Info (12023): Found entity 1: SoPC_mm_interconnect_0_router_006_default_decode File: /home/quartus/t-embhardw/tp2/db/ip/SoPC/submodules/SoPC_mm_interconnect_0_router_006.sv Line: 45
    Info (12023): Found entity 2: SoPC_mm_interconnect_0_router_006 File: /home/quartus/t-embhardw/tp2/db/ip/SoPC/submodules/SoPC_mm_interconnect_0_router_006.sv Line: 84
Info (12021): Found 2 design units, including 2 entities, in source file db/ip/SoPC/submodules/SoPC_mm_interconnect_0_router_008.sv
    Info (12023): Found entity 1: SoPC_mm_interconnect_0_router_008_default_decode File: /home/quartus/t-embhardw/tp2/db/ip/SoPC/submodules/SoPC_mm_interconnect_0_router_008.sv Line: 45
    Info (12023): Found entity 2: SoPC_mm_interconnect_0_router_008 File: /home/quartus/t-embhardw/tp2/db/ip/SoPC/submodules/SoPC_mm_interconnect_0_router_008.sv Line: 84
Info (12021): Found 1 design units, including 1 entities, in source file db/ip/SoPC/submodules/SoPC_mm_interconnect_0_rsp_demux.sv
    Info (12023): Found entity 1: SoPC_mm_interconnect_0_rsp_demux File: /home/quartus/t-embhardw/tp2/db/ip/SoPC/submodules/SoPC_mm_interconnect_0_rsp_demux.sv Line: 43
Info (12021): Found 1 design units, including 1 entities, in source file db/ip/SoPC/submodules/SoPC_mm_interconnect_0_rsp_demux_004.sv
    Info (12023): Found entity 1: SoPC_mm_interconnect_0_rsp_demux_004 File: /home/quartus/t-embhardw/tp2/db/ip/SoPC/submodules/SoPC_mm_interconnect_0_rsp_demux_004.sv Line: 43
Info (12021): Found 1 design units, including 1 entities, in source file db/ip/SoPC/submodules/SoPC_mm_interconnect_0_rsp_mux.sv
    Info (12023): Found entity 1: SoPC_mm_interconnect_0_rsp_mux File: /home/quartus/t-embhardw/tp2/db/ip/SoPC/submodules/SoPC_mm_interconnect_0_rsp_mux.sv Line: 51
Info (12021): Found 1 design units, including 1 entities, in source file db/ip/SoPC/submodules/SoPC_mm_interconnect_0_rsp_mux_001.sv
    Info (12023): Found entity 1: SoPC_mm_interconnect_0_rsp_mux_001 File: /home/quartus/t-embhardw/tp2/db/ip/SoPC/submodules/SoPC_mm_interconnect_0_rsp_mux_001.sv Line: 51
Info (12021): Found 1 design units, including 1 entities, in source file db/ip/SoPC/submodules/SoPC_sysid_qsys_0.v
    Info (12023): Found entity 1: SoPC_sysid_qsys_0 File: /home/quartus/t-embhardw/tp2/db/ip/SoPC/submodules/SoPC_sysid_qsys_0.v Line: 34
Info (12021): Found 1 design units, including 1 entities, in source file db/ip/SoPC/submodules/SoPC_timer_0.v
    Info (12023): Found entity 1: SoPC_timer_0 File: /home/quartus/t-embhardw/tp2/db/ip/SoPC/submodules/SoPC_timer_0.v Line: 21
Info (12021): Found 1 design units, including 1 entities, in source file db/ip/SoPC/submodules/altera_avalon_sc_fifo.v
    Info (12023): Found entity 1: altera_avalon_sc_fifo File: /home/quartus/t-embhardw/tp2/db/ip/SoPC/submodules/altera_avalon_sc_fifo.v Line: 21
Info (12021): Found 1 design units, including 1 entities, in source file db/ip/SoPC/submodules/altera_avalon_st_clock_crosser.v
    Info (12023): Found entity 1: altera_avalon_st_clock_crosser File: /home/quartus/t-embhardw/tp2/db/ip/SoPC/submodules/altera_avalon_st_clock_crosser.v Line: 22
Info (12021): Found 1 design units, including 1 entities, in source file db/ip/SoPC/submodules/altera_avalon_st_handshake_clock_crosser.v
    Info (12023): Found entity 1: altera_avalon_st_handshake_clock_crosser File: /home/quartus/t-embhardw/tp2/db/ip/SoPC/submodules/altera_avalon_st_handshake_clock_crosser.v Line: 24
Info (12021): Found 1 design units, including 1 entities, in source file db/ip/SoPC/submodules/altera_avalon_st_pipeline_base.v
    Info (12023): Found entity 1: altera_avalon_st_pipeline_base File: /home/quartus/t-embhardw/tp2/db/ip/SoPC/submodules/altera_avalon_st_pipeline_base.v Line: 22
Info (12021): Found 1 design units, including 1 entities, in source file db/ip/SoPC/submodules/altera_avalon_st_pipeline_stage.sv
    Info (12023): Found entity 1: altera_avalon_st_pipeline_stage File: /home/quartus/t-embhardw/tp2/db/ip/SoPC/submodules/altera_avalon_st_pipeline_stage.sv Line: 22
Info (12021): Found 1 design units, including 1 entities, in source file db/ip/SoPC/submodules/altera_default_burst_converter.sv
    Info (12023): Found entity 1: altera_default_burst_converter File: /home/quartus/t-embhardw/tp2/db/ip/SoPC/submodules/altera_default_burst_converter.sv Line: 30
Info (12021): Found 1 design units, including 1 entities, in source file db/ip/SoPC/submodules/altera_incr_burst_converter.sv
    Info (12023): Found entity 1: altera_incr_burst_converter File: /home/quartus/t-embhardw/tp2/db/ip/SoPC/submodules/altera_incr_burst_converter.sv Line: 28
Info (12021): Found 1 design units, including 1 entities, in source file db/ip/SoPC/submodules/altera_merlin_address_alignment.sv
    Info (12023): Found entity 1: altera_merlin_address_alignment File: /home/quartus/t-embhardw/tp2/db/ip/SoPC/submodules/altera_merlin_address_alignment.sv Line: 26
Info (12021): Found 2 design units, including 2 entities, in source file db/ip/SoPC/submodules/altera_merlin_arbitrator.sv
    Info (12023): Found entity 1: altera_merlin_arbitrator File: /home/quartus/t-embhardw/tp2/db/ip/SoPC/submodules/altera_merlin_arbitrator.sv Line: 103
    Info (12023): Found entity 2: altera_merlin_arb_adder File: /home/quartus/t-embhardw/tp2/db/ip/SoPC/submodules/altera_merlin_arbitrator.sv Line: 228
Info (12021): Found 1 design units, including 1 entities, in source file db/ip/SoPC/submodules/altera_merlin_burst_adapter.sv
    Info (12023): Found entity 1: altera_merlin_burst_adapter File: /home/quartus/t-embhardw/tp2/db/ip/SoPC/submodules/altera_merlin_burst_adapter.sv Line: 21
Info (12021): Found 5 design units, including 5 entities, in source file db/ip/SoPC/submodules/altera_merlin_burst_adapter_13_1.sv
    Info (12023): Found entity 1: altera_merlin_burst_adapter_burstwrap_increment File: /home/quartus/t-embhardw/tp2/db/ip/SoPC/submodules/altera_merlin_burst_adapter_13_1.sv Line: 40
    Info (12023): Found entity 2: altera_merlin_burst_adapter_adder File: /home/quartus/t-embhardw/tp2/db/ip/SoPC/submodules/altera_merlin_burst_adapter_13_1.sv Line: 55
    Info (12023): Found entity 3: altera_merlin_burst_adapter_subtractor File: /home/quartus/t-embhardw/tp2/db/ip/SoPC/submodules/altera_merlin_burst_adapter_13_1.sv Line: 77
    Info (12023): Found entity 4: altera_merlin_burst_adapter_min File: /home/quartus/t-embhardw/tp2/db/ip/SoPC/submodules/altera_merlin_burst_adapter_13_1.sv Line: 98
    Info (12023): Found entity 5: altera_merlin_burst_adapter_13_1 File: /home/quartus/t-embhardw/tp2/db/ip/SoPC/submodules/altera_merlin_burst_adapter_13_1.sv Line: 264
Info (12021): Found 1 design units, including 1 entities, in source file db/ip/SoPC/submodules/altera_merlin_burst_adapter_new.sv
    Info (12023): Found entity 1: altera_merlin_burst_adapter_new File: /home/quartus/t-embhardw/tp2/db/ip/SoPC/submodules/altera_merlin_burst_adapter_new.sv Line: 25
Info (12021): Found 1 design units, including 1 entities, in source file db/ip/SoPC/submodules/altera_merlin_burst_adapter_uncmpr.sv
    Info (12023): Found entity 1: altera_merlin_burst_adapter_uncompressed_only File: /home/quartus/t-embhardw/tp2/db/ip/SoPC/submodules/altera_merlin_burst_adapter_uncmpr.sv Line: 39
Info (12021): Found 1 design units, including 1 entities, in source file db/ip/SoPC/submodules/altera_merlin_burst_uncompressor.sv
    Info (12023): Found entity 1: altera_merlin_burst_uncompressor File: /home/quartus/t-embhardw/tp2/db/ip/SoPC/submodules/altera_merlin_burst_uncompressor.sv Line: 40
Info (12021): Found 1 design units, including 1 entities, in source file db/ip/SoPC/submodules/altera_merlin_master_agent.sv
    Info (12023): Found entity 1: altera_merlin_master_agent File: /home/quartus/t-embhardw/tp2/db/ip/SoPC/submodules/altera_merlin_master_agent.sv Line: 28
Info (12021): Found 1 design units, including 1 entities, in source file db/ip/SoPC/submodules/altera_merlin_master_translator.sv
    Info (12023): Found entity 1: altera_merlin_master_translator File: /home/quartus/t-embhardw/tp2/db/ip/SoPC/submodules/altera_merlin_master_translator.sv Line: 32
Info (12021): Found 2 design units, including 2 entities, in source file db/ip/SoPC/submodules/altera_merlin_reorder_memory.sv
    Info (12023): Found entity 1: altera_merlin_reorder_memory File: /home/quartus/t-embhardw/tp2/db/ip/SoPC/submodules/altera_merlin_reorder_memory.sv Line: 28
    Info (12023): Found entity 2: memory_pointer_controller File: /home/quartus/t-embhardw/tp2/db/ip/SoPC/submodules/altera_merlin_reorder_memory.sv Line: 185
Info (12021): Found 1 design units, including 1 entities, in source file db/ip/SoPC/submodules/altera_merlin_slave_agent.sv
    Info (12023): Found entity 1: altera_merlin_slave_agent File: /home/quartus/t-embhardw/tp2/db/ip/SoPC/submodules/altera_merlin_slave_agent.sv Line: 34
Info (12021): Found 1 design units, including 1 entities, in source file db/ip/SoPC/submodules/altera_merlin_slave_translator.sv
    Info (12023): Found entity 1: altera_merlin_slave_translator File: /home/quartus/t-embhardw/tp2/db/ip/SoPC/submodules/altera_merlin_slave_translator.sv Line: 35
Info (12021): Found 1 design units, including 1 entities, in source file db/ip/SoPC/submodules/altera_merlin_traffic_limiter.sv
    Info (12023): Found entity 1: altera_merlin_traffic_limiter File: /home/quartus/t-embhardw/tp2/db/ip/SoPC/submodules/altera_merlin_traffic_limiter.sv Line: 49
Info (12021): Found 1 design units, including 1 entities, in source file db/ip/SoPC/submodules/altera_merlin_width_adapter.sv
    Info (12023): Found entity 1: altera_merlin_width_adapter File: /home/quartus/t-embhardw/tp2/db/ip/SoPC/submodules/altera_merlin_width_adapter.sv Line: 25
Info (12021): Found 1 design units, including 1 entities, in source file db/ip/SoPC/submodules/altera_reset_controller.v
    Info (12023): Found entity 1: altera_reset_controller File: /home/quartus/t-embhardw/tp2/db/ip/SoPC/submodules/altera_reset_controller.v Line: 42
Info (12021): Found 1 design units, including 1 entities, in source file db/ip/SoPC/submodules/altera_reset_synchronizer.v
    Info (12023): Found entity 1: altera_reset_synchronizer File: /home/quartus/t-embhardw/tp2/db/ip/SoPC/submodules/altera_reset_synchronizer.v Line: 24
Info (12021): Found 1 design units, including 1 entities, in source file db/ip/SoPC/submodules/altera_std_synchronizer_nocut.v
    Info (12023): Found entity 1: altera_std_synchronizer_nocut File: /home/quartus/t-embhardw/tp2/db/ip/SoPC/submodules/altera_std_synchronizer_nocut.v Line: 44
Info (12021): Found 1 design units, including 1 entities, in source file db/ip/SoPC/submodules/altera_wrap_burst_converter.sv
    Info (12023): Found entity 1: altera_wrap_burst_converter File: /home/quartus/t-embhardw/tp2/db/ip/SoPC/submodules/altera_wrap_burst_converter.sv Line: 27
Warning (10037): Verilog HDL or VHDL warning at SoPC_SDRAM_controller.v(318): conditional expression evaluates to a constant File: /home/quartus/t-embhardw/tp2/db/ip/SoPC/submodules/SoPC_SDRAM_controller.v Line: 318
Warning (10037): Verilog HDL or VHDL warning at SoPC_SDRAM_controller.v(328): conditional expression evaluates to a constant File: /home/quartus/t-embhardw/tp2/db/ip/SoPC/submodules/SoPC_SDRAM_controller.v Line: 328
Warning (10037): Verilog HDL or VHDL warning at SoPC_SDRAM_controller.v(338): conditional expression evaluates to a constant File: /home/quartus/t-embhardw/tp2/db/ip/SoPC/submodules/SoPC_SDRAM_controller.v Line: 338
Warning (10037): Verilog HDL or VHDL warning at SoPC_SDRAM_controller.v(682): conditional expression evaluates to a constant File: /home/quartus/t-embhardw/tp2/db/ip/SoPC/submodules/SoPC_SDRAM_controller.v Line: 682
Info (12127): Elaborating entity "tp1" for the top level hierarchy
Error (275021): Illegal wire or bus name "" of type pin 
Error (12153): Can't elaborate top-level user hierarchy
Info (144001): Generated suppressed messages file /home/quartus/t-embhardw/tp2/output_files/tp1.map.smsg
Error: Quartus Prime Analysis & Synthesis was unsuccessful. 2 errors, 5 warnings
    Error: Peak virtual memory: 980 megabytes
    Error: Processing ended: Wed Oct 31 12:42:59 2018
    Error: Elapsed time: 00:00:54
    Error: Total CPU time (on all processors): 00:02:00


+------------------------------------------+
; Analysis & Synthesis Suppressed Messages ;
+------------------------------------------+
The suppressed messages can be found in /home/quartus/t-embhardw/tp2/output_files/tp1.map.smsg.


